target/tb.vcd
$date
  Tue Jul  9 00:12:27 2024
$end
$version
  GHDL v0
$end
$timescale
  1 fs
$end
$scope module standard $end
$upscope $end
$scope module std_logic_1164 $end
$upscope $end
$scope module numeric_std $end
$upscope $end
$scope module runtime $end
$upscope $end
$scope module textio $end
$upscope $end
$scope module tb_main $end
$var reg 1 ! tb_run $end
$var reg 32 " tb_argument[0:31] $end
$var reg 2 # tb_result[0:1] $end
$var reg 1 $ tb_rdy[0:0] $end
$var reg 1 % tb_clk $end
$var reg 1 & rst $end
$scope module u1 $end
$var reg 1 ' clk $end
$var reg 1 ( reset $end
$var reg 1 ) run $end
$var reg 1 * rdy[0:0] $end
$var reg 32 + argument[0:31] $end
$var reg 2 , result[0:1] $end
$comment state is not handled $end
$comment state_var7021 is not handled $end
$comment \$10695_limit\ is not handled $end
$var reg 32 - \$$10695_limit_value\[0:31] $end
$var integer 32 . \$$10695_limit_ptr\ $end
$var integer 32 / \$$10695_limit_ptr_write\ $end
$var reg 32 0 \$$10695_limit_write\[0:31] $end
$var reg 1 1 \$$10695_limit_write_request\ $end
$comment \$10696_ram\ is not handled $end
$var reg 108 2 \$$10696_ram_value\[0:107] $end
$var integer 32 3 \$$10696_ram_ptr\ $end
$var integer 32 4 \$$10696_ram_ptr_write\ $end
$var reg 108 5 \$$10696_ram_write\[0:107] $end
$var reg 1 6 \$$10696_ram_write_request\ $end
$comment \$10697_stack\ is not handled $end
$var reg 32 7 \$$10697_stack_value\[0:31] $end
$var integer 32 8 \$$10697_stack_ptr\ $end
$var integer 32 9 \$$10697_stack_ptr_write\ $end
$var reg 32 : \$$10697_stack_write\[0:31] $end
$var reg 1 ; \$$10697_stack_write_request\ $end
$comment \$10698_heap\ is not handled $end
$var reg 32 < \$$10698_heap_value\[0:31] $end
$var integer 32 = \$$10698_heap_ptr\ $end
$var integer 32 > \$$10698_heap_ptr_write\ $end
$var reg 32 ? \$$10698_heap_write\[0:31] $end
$var reg 1 @ \$$10698_heap_write_request\ $end
$comment \$10699_symtbl\ is not handled $end
$var reg 32 A \$$10699_symtbl_value\[0:31] $end
$var integer 32 B \$$10699_symtbl_ptr\ $end
$var integer 32 C \$$10699_symtbl_ptr_write\ $end
$var reg 32 D \$$10699_symtbl_write\[0:31] $end
$var reg 1 E \$$10699_symtbl_write_request\ $end
$comment \$10700_pc\ is not handled $end
$var reg 32 F \$$10700_pc_value\[0:31] $end
$var integer 32 G \$$10700_pc_ptr\ $end
$var integer 32 H \$$10700_pc_ptr_write\ $end
$var reg 32 I \$$10700_pc_write\[0:31] $end
$var reg 1 J \$$10700_pc_write_request\ $end
$comment \$10701_pos\ is not handled $end
$var reg 32 K \$$10701_pos_value\[0:31] $end
$var integer 32 L \$$10701_pos_ptr\ $end
$var integer 32 M \$$10701_pos_ptr_write\ $end
$var reg 32 N \$$10701_pos_write\[0:31] $end
$var reg 1 O \$$10701_pos_write_request\ $end
$comment \$10702_brk\ is not handled $end
$var reg 32 P \$$10702_brk_value\[0:31] $end
$var integer 32 Q \$$10702_brk_ptr\ $end
$var integer 32 R \$$10702_brk_ptr_write\ $end
$var reg 32 S \$$10702_brk_write\[0:31] $end
$var reg 1 T \$$10702_brk_write_request\ $end
$upscope $end
$upscope $end
$enddefinitions $end
#0
0!
bUUUUUUUUUUUUUUUUUUUUUUUUUUUUUUUU "
bUU #
bU $
1%
1&
1'
1(
0)
bU *
bUUUUUUUUUUUUUUUUUUUUUUUUUUUUUUUU +
bUU ,
bUUUUUUUUUUUUUUUUUUUUUUUUUUUUUUUU -
b0 .
b0 /
bUUUUUUUUUUUUUUUUUUUUUUUUUUUUUUUU 0
01
bUUUUUUUUUUUUUUUUUUUUUUUUUUUUUUUUUUUUUUUUUUUUUUUUUUUUUUUUUUUUUUUUUUUUUUUUUUUUUUUUUUUUUUUUUUUUUUUUUUUUUUUUUUUU 2
b0 3
b0 4
bUUUUUUUUUUUUUUUUUUUUUUUUUUUUUUUUUUUUUUUUUUUUUUUUUUUUUUUUUUUUUUUUUUUUUUUUUUUUUUUUUUUUUUUUUUUUUUUUUUUUUUUUUUUU 5
06
bUUUUUUUUUUUUUUUUUUUUUUUUUUUUUUUU 7
b0 8
b0 9
bUUUUUUUUUUUUUUUUUUUUUUUUUUUUUUUU :
0;
bUUUUUUUUUUUUUUUUUUUUUUUUUUUUUUUU <
b0 =
b0 >
bUUUUUUUUUUUUUUUUUUUUUUUUUUUUUUUU ?
0@
bUUUUUUUUUUUUUUUUUUUUUUUUUUUUUUUU A
b0 B
b0 C
bUUUUUUUUUUUUUUUUUUUUUUUUUUUUUUUU D
0E
bUUUUUUUUUUUUUUUUUUUUUUUUUUUUUUUU F
b0 G
b0 H
bUUUUUUUUUUUUUUUUUUUUUUUUUUUUUUUU I
0J
bUUUUUUUUUUUUUUUUUUUUUUUUUUUUUUUU K
b0 L
b0 M
bUUUUUUUUUUUUUUUUUUUUUUUUUUUUUUUU N
0O
bUUUUUUUUUUUUUUUUUUUUUUUUUUUUUUUU P
b0 Q
b0 R
bUUUUUUUUUUUUUUUUUUUUUUUUUUUUUUUU S
0T
#2000000
0&
0(
#5000000
0%
0'
#10000000
1!
b10 #
b1 $
1%
1'
1)
b1 *
b10 ,
b00000000000000000000000000000000 -
b000000000000000000000000000000000000000000000000000000000000000000000000000000000000000000000000000000000000 2
b00000000000000000000000000000000 7
b11111111111111111111111111111111 :
1;
b00000000000000000000000000000000 <
b00000000000000000000000000000000 A
b00000000000000000000000000000000 F
b00000000000000000000000000000000 K
b00000000000000000000000000000000 P
#15000000
0%
0'
#20000000
1%
1'
0;
#25000000
0%
0'
#30000000
1%
1'
b11111111111111111111111111111111 7
b11111111111111111111111111111111 ?
1@
#35000000
0%
0'
#40000000
1%
1'
0@
#45000000
0%
0'
#50000000
1%
1'
b11111111111111111111111111111111 <
b11111111111111111111111111111111 D
1E
#55000000
0%
0'
#60000000
1%
1'
0E
#65000000
0%
0'
#70000000
1%
1'
b11111111111111111111111111111111 A
b00000000000000000000000000000000 N
1O
#75000000
0%
0'
#80000000
1%
1'
0O
#85000000
0%
0'
#90000000
1%
1'
b00000000000000000000000000000100 S
1T
#95000000
0%
0'
#100000000
1%
1'
0T
#105000000
0%
0'
#110000000
1%
1'
b00000000000000000001001110001000 0
11
b00000000000000000000000000000100 P
#115000000
0%
0'
#120000000
1%
1'
01
#125000000
0%
0'
#130000000
1%
1'
b00000000000000000001001110001000 -
#135000000
0%
0'
#140000000
1%
1'
#145000000
0%
0'
#150000000
1%
1'
#155000000
0%
0'
#160000000
1%
1'
#165000000
0%
0'
#170000000
1%
1'
#175000000
0%
0'
#180000000
1%
1'
b00000000000000000000000000000001 N
1O
#185000000
0%
0'
#190000000
1%
1'
0O
#195000000
0%
0'
#200000000
1%
1'
b00000000000000000000000000000001 K
#205000000
0%
0'
#210000000
1%
1'
#215000000
0%
0'
#220000000
1%
1'
#225000000
0%
0'
#230000000
1%
1'
#235000000
0%
0'
#240000000
1%
1'
#245000000
0%
0'
#250000000
1%
1'
#255000000
0%
0'
#260000000
1%
1'
#265000000
0%
0'
#270000000
1%
1'
#275000000
0%
0'
#280000000
1%
1'
#285000000
0%
0'
#290000000
1%
1'
#295000000
0%
0'
#300000000
1%
1'
#305000000
0%
0'
#310000000
1%
1'
#315000000
0%
0'
#320000000
1%
1'
b00000000000000000000000000000101 S
1T
#325000000
0%
0'
#330000000
1%
1'
0T
#335000000
0%
0'
#340000000
1%
1'
b00000000000000000000000000000101 P
#345000000
0%
0'
#350000000
1%
1'
#355000000
0%
0'
#360000000
1%
1'
b00000000000000000000000000000101 D
1E
#365000000
0%
0'
#370000000
1%
1'
0E
#375000000
0%
0'
#380000000
1%
1'
b00000000000000000000000000000101 A
#385000000
0%
0'
#390000000
1%
1'
#395000000
0%
0'
#400000000
1%
1'
b101 4
b000000000000000000000000000000000000000100000000000000000000000000000000000100000000000000000000000000000011 5
16
#405000000
0%
0'
#410000000
1%
1'
06
#415000000
0%
0'
#420000000
1%
1'
#425000000
0%
0'
#430000000
1%
1'
#435000000
0%
0'
#440000000
1%
1'
#445000000
0%
0'
#450000000
1%
1'
#455000000
0%
0'
#460000000
1%
1'
#465000000
0%
0'
#470000000
1%
1'
#475000000
0%
0'
#480000000
1%
1'
#485000000
0%
0'
#490000000
1%
1'
#495000000
0%
0'
#500000000
1%
1'
b00000000000000000000000000000110 S
1T
#505000000
0%
0'
#510000000
1%
1'
0T
#515000000
0%
0'
#520000000
1%
1'
b00000000000000000000000000000110 P
#525000000
0%
0'
#530000000
1%
1'
#535000000
0%
0'
#540000000
1%
1'
b00000000000000000000000000000110 D
1E
#545000000
0%
0'
#550000000
1%
1'
0E
#555000000
0%
0'
#560000000
1%
1'
b00000000000000000000000000000110 A
#565000000
0%
0'
#570000000
1%
1'
#575000000
0%
0'
#580000000
1%
1'
b110 4
b000000000000000000000000000000000010000000000000000000000000000000000101000100000000000000000000000000000010 5
16
#585000000
0%
0'
#590000000
1%
1'
06
#595000000
0%
0'
#600000000
1%
1'
#605000000
0%
0'
#610000000
1%
1'
#615000000
0%
0'
#620000000
1%
1'
#625000000
0%
0'
#630000000
1%
1'
#635000000
0%
0'
#640000000
1%
1'
#645000000
0%
0'
#650000000
1%
1'
#655000000
0%
0'
#660000000
1%
1'
#665000000
0%
0'
#670000000
1%
1'
#675000000
0%
0'
#680000000
1%
1'
b00000000000000000000000000000111 S
1T
#685000000
0%
0'
#690000000
1%
1'
0T
#695000000
0%
0'
#700000000
1%
1'
b00000000000000000000000000000111 P
#705000000
0%
0'
#710000000
1%
1'
#715000000
0%
0'
#720000000
1%
1'
b00000000000000000000000000000111 D
1E
#725000000
0%
0'
#730000000
1%
1'
0E
#735000000
0%
0'
#740000000
1%
1'
b00000000000000000000000000000111 A
#745000000
0%
0'
#750000000
1%
1'
#755000000
0%
0'
#760000000
1%
1'
b111 4
b000000000000000000000000000000000110000011111111111111111111111111111111000100000000000000000000000000000000 5
16
#765000000
0%
0'
#770000000
1%
1'
06
#775000000
0%
0'
#780000000
1%
1'
#785000000
0%
0'
#790000000
1%
1'
#795000000
0%
0'
#800000000
1%
1'
#805000000
0%
0'
#810000000
1%
1'
#815000000
0%
0'
#820000000
1%
1'
#825000000
0%
0'
#830000000
1%
1'
#835000000
0%
0'
#840000000
1%
1'
#845000000
0%
0'
#850000000
1%
1'
#855000000
0%
0'
#860000000
1%
1'
#865000000
0%
0'
#870000000
1%
1'
#875000000
0%
0'
#880000000
1%
1'
#885000000
0%
0'
#890000000
1%
1'
#895000000
0%
0'
#900000000
1%
1'
#905000000
0%
0'
#910000000
1%
1'
#915000000
0%
0'
#920000000
1%
1'
b00000000000000000000000000001000 S
1T
#925000000
0%
0'
#930000000
1%
1'
0T
#935000000
0%
0'
#940000000
1%
1'
b00000000000000000000000000001000 P
#945000000
0%
0'
#950000000
1%
1'
#955000000
0%
0'
#960000000
1%
1'
b00000000000000000000000000001000 D
1E
#965000000
0%
0'
#970000000
1%
1'
0E
#975000000
0%
0'
#980000000
1%
1'
b00000000000000000000000000001000 A
#985000000
0%
0'
#990000000
1%
1'
#995000000
0%
0'
#1000000000
1%
1'
b1000 4
b000000000000000000000000000000000000000100000000000000000000000000000000000100000000000000000000000000000011 5
16
#1005000000
0%
0'
#1010000000
1%
1'
06
#1015000000
0%
0'
#1020000000
1%
1'
#1025000000
0%
0'
#1030000000
1%
1'
#1035000000
0%
0'
#1040000000
1%
1'
#1045000000
0%
0'
#1050000000
1%
1'
#1055000000
0%
0'
#1060000000
1%
1'
#1065000000
0%
0'
#1070000000
1%
1'
#1075000000
0%
0'
#1080000000
1%
1'
#1085000000
0%
0'
#1090000000
1%
1'
#1095000000
0%
0'
#1100000000
1%
1'
b00000000000000000000000000001001 S
1T
#1105000000
0%
0'
#1110000000
1%
1'
0T
#1115000000
0%
0'
#1120000000
1%
1'
b00000000000000000000000000001001 P
#1125000000
0%
0'
#1130000000
1%
1'
#1135000000
0%
0'
#1140000000
1%
1'
b00000000000000000000000000001001 D
1E
#1145000000
0%
0'
#1150000000
1%
1'
0E
#1155000000
0%
0'
#1160000000
1%
1'
b00000000000000000000000000001001 A
#1165000000
0%
0'
#1170000000
1%
1'
#1175000000
0%
0'
#1180000000
1%
1'
b1001 4
b000000000000000000000000000000000010000000000000000000000000000000001000000100000000000000000000000000000010 5
16
#1185000000
0%
0'
#1190000000
1%
1'
06
#1195000000
0%
0'
#1200000000
1%
1'
#1205000000
0%
0'
#1210000000
1%
1'
#1215000000
0%
0'
#1220000000
1%
1'
#1225000000
0%
0'
#1230000000
1%
1'
#1235000000
0%
0'
#1240000000
1%
1'
#1245000000
0%
0'
#1250000000
1%
1'
#1255000000
0%
0'
#1260000000
1%
1'
#1265000000
0%
0'
#1270000000
1%
1'
#1275000000
0%
0'
#1280000000
1%
1'
b00000000000000000000000000001010 S
1T
#1285000000
0%
0'
#1290000000
1%
1'
0T
#1295000000
0%
0'
#1300000000
1%
1'
b00000000000000000000000000001010 P
#1305000000
0%
0'
#1310000000
1%
1'
#1315000000
0%
0'
#1320000000
1%
1'
b00000000000000000000000000001010 D
1E
#1325000000
0%
0'
#1330000000
1%
1'
0E
#1335000000
0%
0'
#1340000000
1%
1'
b00000000000000000000000000001010 A
#1345000000
0%
0'
#1350000000
1%
1'
#1355000000
0%
0'
#1360000000
1%
1'
b1010 4
b000000000000000000000000000000001001000000000000000000000000000000000111000100000000000000000000000000000000 5
16
#1365000000
0%
0'
#1370000000
1%
1'
06
#1375000000
0%
0'
#1380000000
1%
1'
#1385000000
0%
0'
#1390000000
1%
1'
#1395000000
0%
0'
#1400000000
1%
1'
#1405000000
0%
0'
#1410000000
1%
1'
#1415000000
0%
0'
#1420000000
1%
1'
#1425000000
0%
0'
#1430000000
1%
1'
#1435000000
0%
0'
#1440000000
1%
1'
#1445000000
0%
0'
#1450000000
1%
1'
#1455000000
0%
0'
#1460000000
1%
1'
#1465000000
0%
0'
#1470000000
1%
1'
#1475000000
0%
0'
#1480000000
1%
1'
#1485000000
0%
0'
#1490000000
1%
1'
#1495000000
0%
0'
#1500000000
1%
1'
#1505000000
0%
0'
#1510000000
1%
1'
#1515000000
0%
0'
#1520000000
1%
1'
b00000000000000000000000000001011 S
1T
#1525000000
0%
0'
#1530000000
1%
1'
0T
#1535000000
0%
0'
#1540000000
1%
1'
b00000000000000000000000000001011 P
#1545000000
0%
0'
#1550000000
1%
1'
#1555000000
0%
0'
#1560000000
1%
1'
b00000000000000000000000000001011 D
1E
#1565000000
0%
0'
#1570000000
1%
1'
0E
#1575000000
0%
0'
#1580000000
1%
1'
b00000000000000000000000000001011 A
#1585000000
0%
0'
#1590000000
1%
1'
#1595000000
0%
0'
#1600000000
1%
1'
b1011 4
b000000000000000000000000000000000000000100000000000000000000000000000000000100000000000000000000000000000011 5
16
#1605000000
0%
0'
#1610000000
1%
1'
06
#1615000000
0%
0'
#1620000000
1%
1'
#1625000000
0%
0'
#1630000000
1%
1'
#1635000000
0%
0'
#1640000000
1%
1'
#1645000000
0%
0'
#1650000000
1%
1'
#1655000000
0%
0'
#1660000000
1%
1'
#1665000000
0%
0'
#1670000000
1%
1'
#1675000000
0%
0'
#1680000000
1%
1'
#1685000000
0%
0'
#1690000000
1%
1'
#1695000000
0%
0'
#1700000000
1%
1'
b00000000000000000000000000001100 S
1T
#1705000000
0%
0'
#1710000000
1%
1'
0T
#1715000000
0%
0'
#1720000000
1%
1'
b00000000000000000000000000001100 P
#1725000000
0%
0'
#1730000000
1%
1'
#1735000000
0%
0'
#1740000000
1%
1'
b00000000000000000000000000001100 D
1E
#1745000000
0%
0'
#1750000000
1%
1'
0E
#1755000000
0%
0'
#1760000000
1%
1'
b00000000000000000000000000001100 A
#1765000000
0%
0'
#1770000000
1%
1'
#1775000000
0%
0'
#1780000000
1%
1'
b1100 4
b000000000000000000000000000000000010000000000000000000000000000000001011000100000000000000000000000000000010 5
16
#1785000000
0%
0'
#1790000000
1%
1'
06
#1795000000
0%
0'
#1800000000
1%
1'
#1805000000
0%
0'
#1810000000
1%
1'
#1815000000
0%
0'
#1820000000
1%
1'
#1825000000
0%
0'
#1830000000
1%
1'
#1835000000
0%
0'
#1840000000
1%
1'
#1845000000
0%
0'
#1850000000
1%
1'
#1855000000
0%
0'
#1860000000
1%
1'
#1865000000
0%
0'
#1870000000
1%
1'
#1875000000
0%
0'
#1880000000
1%
1'
b00000000000000000000000000001101 S
1T
#1885000000
0%
0'
#1890000000
1%
1'
0T
#1895000000
0%
0'
#1900000000
1%
1'
b00000000000000000000000000001101 P
#1905000000
0%
0'
#1910000000
1%
1'
#1915000000
0%
0'
#1920000000
1%
1'
b00000000000000000000000000001101 D
1E
#1925000000
0%
0'
#1930000000
1%
1'
0E
#1935000000
0%
0'
#1940000000
1%
1'
b00000000000000000000000000001101 A
#1945000000
0%
0'
#1950000000
1%
1'
#1955000000
0%
0'
#1960000000
1%
1'
b1101 4
b000000000000000000000000000000001100000000000000000000000000000000001010000100000000000000000000000000000000 5
16
#1965000000
0%
0'
#1970000000
1%
1'
06
